// Jest Snapshot v1, https://goo.gl/fbAQLP

exports[`HeroCard - Container Hero card renders 1`] = `"<div class=\\"heroesList\\"><div class=\\"row\\"><div class=\\"col-12 col-sm-6 col-md-4 col-lg-3\\"><div class=\\"heroCard\\"><img class=\\"heroCard__image\\" src=\\"http://i.annihil.us/u/prod/marvel/i/mg/2/60/537bcaef0f6cf.jpg\\" alt=\\"Wolverine\\"><div class=\\"heroCard__content\\"><span class=\\"heroCard__content__name\\">Wolverine</span><span class=\\"heroCard__content__description\\">Born with super-human senses and the power to heal from almost any wound, Wolverine was captured by a secret Canadian organization and given an unbreakable skeleton and claws. Treated like an animal, it took years for him to control himself. Now, he's a premiere member of both the X-Men and the Avengers.</span></div></div></div></div></div>"`;
