// Jest Snapshot v1, https://goo.gl/fbAQLP

exports[`searchBar - UI SearchBar Active and empty 1`] = `"<div class=\\"searchBar searchBar--active\\"><svg class=\\"searchBar__icon\\" xmlns=\\"http://www.w3.org/2000/svg\\" viewBox=\\"0 0 48 48\\"><path stroke-width=\\"4\\" d=\\"M31.263 32.547a1.975 1.975 0 0 1 2.717 0l4.454 4.284a1.81 1.81 0 0 1 0 2.627 1.975 1.975 0 0 1-2.717 0l-4.454-4.283a1.81 1.81 0 0 1 0-2.628zm-.46-2.569c-4.988 4.797-13.072 4.797-18.06 0-4.99-4.8-4.99-12.581 0-17.38 4.988-4.797 13.072-4.797 18.06 0 4.99 4.799 4.99 12.58 0 17.38zm-2.297-2.21c3.722-3.578 3.722-9.382 0-12.961-3.72-3.577-9.747-3.577-13.466 0-3.722 3.579-3.722 9.383 0 12.962 3.72 3.576 9.747 3.576 13.466 0z\\"></path></svg><input class=\\"searchBar__input\\" name=\\"searchKeyword\\" placeholder=\\"Buscar un super heroe\\" type=\\"text\\" autocomplete=\\"off\\" value=\\"\\"></div>"`;

exports[`searchBar - UI SearchBar Active and with text 1`] = `"<div class=\\"searchBar searchBar--active\\"><svg class=\\"searchBar__icon\\" xmlns=\\"http://www.w3.org/2000/svg\\" viewBox=\\"0 0 48 48\\"><path stroke-width=\\"4\\" d=\\"M31.263 32.547a1.975 1.975 0 0 1 2.717 0l4.454 4.284a1.81 1.81 0 0 1 0 2.627 1.975 1.975 0 0 1-2.717 0l-4.454-4.283a1.81 1.81 0 0 1 0-2.628zm-.46-2.569c-4.988 4.797-13.072 4.797-18.06 0-4.99-4.8-4.99-12.581 0-17.38 4.988-4.797 13.072-4.797 18.06 0 4.99 4.799 4.99 12.58 0 17.38zm-2.297-2.21c3.722-3.578 3.722-9.382 0-12.961-3.72-3.577-9.747-3.577-13.466 0-3.722 3.579-3.722 9.383 0 12.962 3.72 3.576 9.747 3.576 13.466 0z\\"></path></svg><input class=\\"searchBar__input\\" name=\\"searchKeyword\\" placeholder=\\"Buscar un super heroe\\" type=\\"text\\" autocomplete=\\"off\\" value=\\"SpiderMan\\"><button class=\\"searchBar__reset\\"><svg class=\\"searchBar__reset__icon\\" id=\\"icon-cancel-circle\\" viewBox=\\"0 0 32 32\\"><path d=\\"M16 0c-8.837 0-16 7.163-16 16s7.163 16 16 16 16-7.163 16-16-7.163-16-16-16zM16 29c-7.18 0-13-5.82-13-13s5.82-13 13-13 13 5.82 13 13-5.82 13-13 13z\\"></path><path d=\\"M21 8l-5 5-5-5-3 3 5 5-5 5 3 3 5-5 5 5 3-3-5-5 5-5z\\"></path></svg></button></div>"`;

exports[`searchBar - UI SearchBar inactive and empty 1`] = `"<div class=\\"searchBar \\"><svg class=\\"searchBar__icon\\" xmlns=\\"http://www.w3.org/2000/svg\\" viewBox=\\"0 0 48 48\\"><path stroke-width=\\"4\\" d=\\"M31.263 32.547a1.975 1.975 0 0 1 2.717 0l4.454 4.284a1.81 1.81 0 0 1 0 2.627 1.975 1.975 0 0 1-2.717 0l-4.454-4.283a1.81 1.81 0 0 1 0-2.628zm-.46-2.569c-4.988 4.797-13.072 4.797-18.06 0-4.99-4.8-4.99-12.581 0-17.38 4.988-4.797 13.072-4.797 18.06 0 4.99 4.799 4.99 12.58 0 17.38zm-2.297-2.21c3.722-3.578 3.722-9.382 0-12.961-3.72-3.577-9.747-3.577-13.466 0-3.722 3.579-3.722 9.383 0 12.962 3.72 3.576 9.747 3.576 13.466 0z\\"></path></svg><input class=\\"searchBar__input\\" name=\\"searchKeyword\\" placeholder=\\"Buscar un super heroe\\" type=\\"text\\" autocomplete=\\"off\\" value=\\"\\"></div>"`;

exports[`searchBar - UI SearchBar innactive and with text 1`] = `"<div class=\\"searchBar \\"><svg class=\\"searchBar__icon\\" xmlns=\\"http://www.w3.org/2000/svg\\" viewBox=\\"0 0 48 48\\"><path stroke-width=\\"4\\" d=\\"M31.263 32.547a1.975 1.975 0 0 1 2.717 0l4.454 4.284a1.81 1.81 0 0 1 0 2.627 1.975 1.975 0 0 1-2.717 0l-4.454-4.283a1.81 1.81 0 0 1 0-2.628zm-.46-2.569c-4.988 4.797-13.072 4.797-18.06 0-4.99-4.8-4.99-12.581 0-17.38 4.988-4.797 13.072-4.797 18.06 0 4.99 4.799 4.99 12.58 0 17.38zm-2.297-2.21c3.722-3.578 3.722-9.382 0-12.961-3.72-3.577-9.747-3.577-13.466 0-3.722 3.579-3.722 9.383 0 12.962 3.72 3.576 9.747 3.576 13.466 0z\\"></path></svg><input class=\\"searchBar__input\\" name=\\"searchKeyword\\" placeholder=\\"Buscar un super heroe\\" type=\\"text\\" autocomplete=\\"off\\" value=\\"SpiderMan\\"><button class=\\"searchBar__reset\\"><svg class=\\"searchBar__reset__icon\\" id=\\"icon-cancel-circle\\" viewBox=\\"0 0 32 32\\"><path d=\\"M16 0c-8.837 0-16 7.163-16 16s7.163 16 16 16 16-7.163 16-16-7.163-16-16-16zM16 29c-7.18 0-13-5.82-13-13s5.82-13 13-13 13 5.82 13 13-5.82 13-13 13z\\"></path><path d=\\"M21 8l-5 5-5-5-3 3 5 5-5 5 3 3 5-5 5 5 3-3-5-5 5-5z\\"></path></svg></button></div>"`;
